C:\Users\jarqu\Documents\NetBeansProjects\EvaluacionFinalCiisa\src\main\java\cl\athorznet\evaluacionfinalciisa\oxfordapi\model\api\OxfordDef.java
C:\Users\jarqu\Documents\NetBeansProjects\EvaluacionFinalCiisa\src\main\java\cl\athorznet\evaluacionfinalciisa\oxfordapi\model\dao\exceptions\FunctionalException.java
C:\Users\jarqu\Documents\NetBeansProjects\EvaluacionFinalCiisa\src\main\java\cl\athorznet\evaluacionfinalciisa\oxfordapi\model\dao\exceptions\IllegalOrphanException.java
C:\Users\jarqu\Documents\NetBeansProjects\EvaluacionFinalCiisa\src\main\java\cl\athorznet\evaluacionfinalciisa\oxfordapi\model\dao\DefinicionDAO.java
C:\Users\jarqu\Documents\NetBeansProjects\EvaluacionFinalCiisa\src\main\java\cl\athorznet\evaluacionfinalciisa\oxfordapi\model\domain\ResultResponse.java
C:\Users\jarqu\Documents\NetBeansProjects\EvaluacionFinalCiisa\src\main\java\cl\athorznet\evaluacionfinalciisa\oxfordapi\AppConfig.java
C:\Users\jarqu\Documents\NetBeansProjects\EvaluacionFinalCiisa\src\main\java\cl\athorznet\evaluacionfinalciisa\oxfordapi\model\dao\exceptions\NonexistentEntityException.java
C:\Users\jarqu\Documents\NetBeansProjects\EvaluacionFinalCiisa\src\main\java\cl\athorznet\evaluacionfinalciisa\oxfordapi\services\OxfordApi.java
C:\Users\jarqu\Documents\NetBeansProjects\EvaluacionFinalCiisa\src\main\java\cl\athorznet\evaluacionfinalciisa\oxfordapi\model\domain\ErrorResponse.java
C:\Users\jarqu\Documents\NetBeansProjects\EvaluacionFinalCiisa\src\main\java\cl\athorznet\evaluacionfinalciisa\oxfordapi\model\domain\MessageResponse.java
C:\Users\jarqu\Documents\NetBeansProjects\EvaluacionFinalCiisa\src\main\java\cl\athorznet\evaluacionfinalciisa\oxfordapi\model\api\Result.java
C:\Users\jarqu\Documents\NetBeansProjects\EvaluacionFinalCiisa\src\main\java\cl\athorznet\evaluacionfinalciisa\oxfordapi\model\api\Metadata.java
C:\Users\jarqu\Documents\NetBeansProjects\EvaluacionFinalCiisa\src\main\java\cl\athorznet\evaluacionfinalciisa\oxfordapi\controller\DefinicionController.java
C:\Users\jarqu\Documents\NetBeansProjects\EvaluacionFinalCiisa\src\main\java\cl\athorznet\evaluacionfinalciisa\oxfordapi\model\api\LexicalCategory.java
C:\Users\jarqu\Documents\NetBeansProjects\EvaluacionFinalCiisa\src\main\java\cl\athorznet\evaluacionfinalciisa\oxfordapi\model\domain\HistorialResponse.java
C:\Users\jarqu\Documents\NetBeansProjects\EvaluacionFinalCiisa\src\main\java\cl\athorznet\evaluacionfinalciisa\oxfordapi\model\entities\Definicion.java
C:\Users\jarqu\Documents\NetBeansProjects\EvaluacionFinalCiisa\src\main\java\cl\athorznet\evaluacionfinalciisa\oxfordapi\model\dao\exceptions\PreexistingEntityException.java
C:\Users\jarqu\Documents\NetBeansProjects\EvaluacionFinalCiisa\src\main\java\cl\athorznet\evaluacionfinalciisa\oxfordapi\services\Service.java
C:\Users\jarqu\Documents\NetBeansProjects\EvaluacionFinalCiisa\src\main\java\cl\athorznet\evaluacionfinalciisa\oxfordapi\resources\Resource.java
C:\Users\jarqu\Documents\NetBeansProjects\EvaluacionFinalCiisa\src\main\java\cl\athorznet\evaluacionfinalciisa\oxfordapi\model\api\LexicalEntry.java
C:\Users\jarqu\Documents\NetBeansProjects\EvaluacionFinalCiisa\src\main\java\cl\athorznet\evaluacionfinalciisa\oxfordapi\model\api\Sense.java
C:\Users\jarqu\Documents\NetBeansProjects\EvaluacionFinalCiisa\src\main\java\cl\athorznet\evaluacionfinalciisa\oxfordapi\model\api\Entry.java
